{
  "heading": "Uw software op maat",
  "description": "Sed efficitur aliquet dolor pharetra semper. Nunc sed venenatis erat, nec ultricies turpis",
  "image": "/software-op-maat/banner-2.jpeg",
  "cta": [
    {
      "secondary": true,
      "text": "Software op maat",
      "to": "/solutions/software-op-maat"
    },
    {
      "secondary": false,
      "text": "Over ons",
      "to": "/over-ons"
    }
  ]
}